name: Endpoints
description: ''
endpoints:
  -
    httpMethods:
      - POST
    uri: api/auth/register
    metadata:
      groupName: Endpoints
      groupDescription: ''
      subgroup: ''
      subgroupDescription: ''
      title: ''
      description: ''
      authenticated: false
      custom: []
    headers:
      Content-Type: application/json
      Accept: application/json
    urlParameters: []
    cleanUrlParameters: []
    queryParameters: []
    cleanQueryParameters: []
    bodyParameters:
      name:
        name: name
        description: 'Must not be greater than 255 characters.'
        required: true
        example: vmqeopfuudtdsufvyvddq
        type: string
        enumValues: []
        exampleWasSpecified: false
        nullable: false
        custom: []
      email:
        name: email
        description: 'Must be a valid email address. Must not be greater than 255 characters.'
        required: true
        example: kunde.eloisa@example.com
        type: string
        enumValues: []
        exampleWasSpecified: false
        nullable: false
        custom: []
      password:
        name: password
        description: 'Must be at least 6 characters.'
        required: true
        example: '4[*UyPJ"}6'
        type: string
        enumValues: []
        exampleWasSpecified: false
        nullable: false
        custom: []
    cleanBodyParameters:
      name: vmqeopfuudtdsufvyvddq
      email: kunde.eloisa@example.com
      password: '4[*UyPJ"}6'
    fileParameters: []
    responses: []
    responseFields: []
    auth: []
    controller: null
    method: null
    route: null
    custom: []
  -
    httpMethods:
      - POST
    uri: api/auth/login
    metadata:
      groupName: Endpoints
      groupDescription: ''
      subgroup: ''
      subgroupDescription: ''
      title: ''
      description: ''
      authenticated: false
      custom: []
    headers:
      Content-Type: application/json
      Accept: application/json
    urlParameters: []
    cleanUrlParameters: []
    queryParameters: []
    cleanQueryParameters: []
    bodyParameters: []
    cleanBodyParameters: []
    fileParameters: []
    responses: []
    responseFields: []
    auth: []
    controller: null
    method: null
    route: null
    custom: []
  -
    httpMethods:
      - POST
    uri: api/auth/logout
    metadata:
      groupName: Endpoints
      groupDescription: ''
      subgroup: ''
      subgroupDescription: ''
      title: ''
      description: ''
      authenticated: false
      custom: []
    headers:
      Content-Type: application/json
      Accept: application/json
    urlParameters: []
    cleanUrlParameters: []
    queryParameters: []
    cleanQueryParameters: []
    bodyParameters: []
    cleanBodyParameters: []
    fileParameters: []
    responses: []
    responseFields: []
    auth: []
    controller: null
    method: null
    route: null
    custom: []
  -
    httpMethods:
      - GET
    uri: api/auth/profile
    metadata:
      groupName: Endpoints
      groupDescription: ''
      subgroup: ''
      subgroupDescription: ''
      title: ''
      description: ''
      authenticated: false
      custom: []
    headers:
      Content-Type: application/json
      Accept: application/json
    urlParameters: []
    cleanUrlParameters: []
    queryParameters: []
    cleanQueryParameters: []
    bodyParameters: []
    cleanBodyParameters: []
    fileParameters: []
    responses:
      -
        status: 401
        content: '{"status":"error","message":"No est\u00e1s registrado"}'
        headers:
          cache-control: 'no-cache, private'
          content-type: application/json
          access-control-allow-origin: '*'
        description: null
        custom: []
    responseFields: []
    auth: []
    controller: null
    method: null
    route: null
    custom: []
  -
    httpMethods:
      - GET
    uri: 'api/peoples/{id}'
    metadata:
      groupName: Endpoints
      groupDescription: ''
      subgroup: ''
      subgroupDescription: ''
      title: ''
      description: ''
      authenticated: false
      custom: []
    headers:
      Content-Type: application/json
      Accept: application/json
    urlParameters:
      id:
        name: id
        description: 'The ID of the people.'
        required: true
        example: consequatur
        type: string
        enumValues: []
        exampleWasSpecified: false
        nullable: false
        custom: []
    cleanUrlParameters:
      id: consequatur
    queryParameters: []
    cleanQueryParameters: []
    bodyParameters: []
    cleanBodyParameters: []
    fileParameters: []
    responses:
      -
        status: 404
        content: '{"status":"error","message":"Person not found"}'
        headers:
          cache-control: 'no-cache, private'
          content-type: application/json
          access-control-allow-origin: '*'
        description: null
        custom: []
    responseFields: []
    auth: []
    controller: null
    method: null
    route: null
    custom: []
  -
    httpMethods:
      - GET
    uri: api/peoples
    metadata:
      groupName: Endpoints
      groupDescription: ''
      subgroup: ''
      subgroupDescription: ''
      title: ''
      description: ''
      authenticated: false
      custom: []
    headers:
      Content-Type: application/json
      Accept: application/json
    urlParameters: []
    cleanUrlParameters: []
    queryParameters: []
    cleanQueryParameters: []
    bodyParameters: []
    cleanBodyParameters: []
    fileParameters: []
    responses:
      -
        status: 200
        content: '{"data":{"current_page":1,"data":[{"id":1,"name":"Juan P\u00e9rez","email":"juan.perez@example.com","address":"Calle Falsa 123, Ciudad","date":"1990-05-15","created_at":null,"updated_at":null},{"id":2,"name":"Mar\u00eda L\u00f3pez","email":"maria.lopez@example.com","address":"Avenida Siempre Viva 742, Ciudad","date":"1985-08-22","created_at":null,"updated_at":null},{"id":3,"name":"Carlos G\u00f3mez","email":"carlos.gomez@example.com","address":"Boulevard Central 456, Ciudad","date":"1992-11-03","created_at":null,"updated_at":null},{"id":4,"name":"Ana Torres","email":"ana.torres@example.com","address":"Plaza Mayor 789, Ciudad","date":"1988-02-17","created_at":null,"updated_at":null}],"first_page_url":"http:\/\/localhost\/api\/peoples?page=1","from":1,"last_page":1,"last_page_url":"http:\/\/localhost\/api\/peoples?page=1","links":[{"url":null,"label":"&laquo; Previous","active":false},{"url":"http:\/\/localhost\/api\/peoples?page=1","label":"1","active":true},{"url":null,"label":"Next &raquo;","active":false}],"next_page_url":null,"path":"http:\/\/localhost\/api\/peoples","per_page":5,"prev_page_url":null,"to":4,"total":4}}'
        headers:
          cache-control: 'no-cache, private'
          content-type: application/json
          access-control-allow-origin: '*'
        description: null
        custom: []
    responseFields: []
    auth: []
    controller: null
    method: null
    route: null
    custom: []
  -
    httpMethods:
      - POST
    uri: api/peoples
    metadata:
      groupName: Endpoints
      groupDescription: ''
      subgroup: ''
      subgroupDescription: ''
      title: ''
      description: ''
      authenticated: false
      custom: []
    headers:
      Content-Type: application/json
      Accept: application/json
    urlParameters: []
    cleanUrlParameters: []
    queryParameters: []
    cleanQueryParameters: []
    bodyParameters: []
    cleanBodyParameters: []
    fileParameters: []
    responses: []
    responseFields: []
    auth: []
    controller: null
    method: null
    route: null
    custom: []
  -
    httpMethods:
      - POST
    uri: 'api/peoples/{id}'
    metadata:
      groupName: Endpoints
      groupDescription: ''
      subgroup: ''
      subgroupDescription: ''
      title: ''
      description: ''
      authenticated: false
      custom: []
    headers:
      Content-Type: application/json
      Accept: application/json
    urlParameters:
      id:
        name: id
        description: 'The ID of the people.'
        required: true
        example: 1
        type: integer
        enumValues: []
        exampleWasSpecified: false
        nullable: false
        custom: []
    cleanUrlParameters:
      id: 1
    queryParameters: []
    cleanQueryParameters: []
    bodyParameters: []
    cleanBodyParameters: []
    fileParameters: []
    responses: []
    responseFields: []
    auth: []
    controller: null
    method: null
    route: null
    custom: []
  -
    httpMethods:
      - DELETE
    uri: 'api/peoples/{id}'
    metadata:
      groupName: Endpoints
      groupDescription: ''
      subgroup: ''
      subgroupDescription: ''
      title: ''
      description: ''
      authenticated: false
      custom: []
    headers:
      Content-Type: application/json
      Accept: application/json
    urlParameters:
      id:
        name: id
        description: 'The ID of the people.'
        required: true
        example: 1
        type: integer
        enumValues: []
        exampleWasSpecified: false
        nullable: false
        custom: []
    cleanUrlParameters:
      id: 1
    queryParameters: []
    cleanQueryParameters: []
    bodyParameters: []
    cleanBodyParameters: []
    fileParameters: []
    responses: []
    responseFields: []
    auth: []
    controller: null
    method: null
    route: null
    custom: []
  -
    httpMethods:
      - GET
    uri: 'api/pets/{id}'
    metadata:
      groupName: Endpoints
      groupDescription: ''
      subgroup: ''
      subgroupDescription: ''
      title: ''
      description: ''
      authenticated: false
      custom: []
    headers:
      Content-Type: application/json
      Accept: application/json
    urlParameters:
      id:
        name: id
        description: 'The ID of the pet.'
        required: true
        example: consequatur
        type: string
        enumValues: []
        exampleWasSpecified: false
        nullable: false
        custom: []
    cleanUrlParameters:
      id: consequatur
    queryParameters: []
    cleanQueryParameters: []
    bodyParameters: []
    cleanBodyParameters: []
    fileParameters: []
    responses:
      -
        status: 404
        content: |-
          {
              "message": "No query results for model [App\\Models\\Pet] consequatur"
          }
        headers:
          cache-control: 'no-cache, private'
          content-type: application/json
          access-control-allow-origin: '*'
        description: null
        custom: []
    responseFields: []
    auth: []
    controller: null
    method: null
    route: null
    custom: []
  -
    httpMethods:
      - GET
    uri: api/pets
    metadata:
      groupName: Endpoints
      groupDescription: ''
      subgroup: ''
      subgroupDescription: ''
      title: ''
      description: ''
      authenticated: false
      custom: []
    headers:
      Content-Type: application/json
      Accept: application/json
    urlParameters: []
    cleanUrlParameters: []
    queryParameters: []
    cleanQueryParameters: []
    bodyParameters: []
    cleanBodyParameters: []
    fileParameters: []
    responses:
      -
        status: 200
        content: '{"data":{"current_page":1,"data":[{"id":1,"name":"Max","species":"Dog","breed":"Labrador Retriever","origin":"Canada","temperament":"Friendly","age":3,"people_id":2,"image_url":"https:\/\/cdn2.thedogapi.com\/images\/lNnWNU4qU.jpg","created_at":null,"updated_at":null},{"id":2,"name":"Luna","species":"Cat","breed":"Siamese","origin":"Thailand","temperament":"Affectionate","age":2,"people_id":2,"image_url":"https:\/\/cdn2.thedogapi.com\/images\/lNnWNU4qU.jpg","created_at":null,"updated_at":null},{"id":3,"name":"Charlie","species":"Dog","breed":"Beagle","origin":"England","temperament":"Curious","age":4,"people_id":1,"image_url":"https:\/\/cdn2.thedogapi.com\/images\/lNnWNU4qU.jpg","created_at":null,"updated_at":null},{"id":4,"name":"Bella","species":"Cat","breed":"Persian","origin":"Iran","temperament":"Calm","age":1,"people_id":2,"image_url":"https:\/\/cdn2.thedogapi.com\/images\/lNnWNU4qU.jpg","created_at":null,"updated_at":null},{"id":5,"name":"Rocky","species":"Dog","breed":"Bulldog","origin":"England","temperament":"Docile","age":5,"people_id":1,"image_url":"https:\/\/cdn2.thedogapi.com\/images\/lNnWNU4qU.jpg","created_at":null,"updated_at":null}],"first_page_url":"http:\/\/localhost\/api\/pets?page=1","from":1,"last_page":2,"last_page_url":"http:\/\/localhost\/api\/pets?page=2","links":[{"url":null,"label":"&laquo; Previous","active":false},{"url":"http:\/\/localhost\/api\/pets?page=1","label":"1","active":true},{"url":"http:\/\/localhost\/api\/pets?page=2","label":"2","active":false},{"url":"http:\/\/localhost\/api\/pets?page=2","label":"Next &raquo;","active":false}],"next_page_url":"http:\/\/localhost\/api\/pets?page=2","path":"http:\/\/localhost\/api\/pets","per_page":5,"prev_page_url":null,"to":5,"total":6}}'
        headers:
          cache-control: 'no-cache, private'
          content-type: application/json
          access-control-allow-origin: '*'
        description: null
        custom: []
    responseFields: []
    auth: []
    controller: null
    method: null
    route: null
    custom: []
  -
    httpMethods:
      - POST
    uri: api/pets
    metadata:
      groupName: Endpoints
      groupDescription: ''
      subgroup: ''
      subgroupDescription: ''
      title: ''
      description: ''
      authenticated: false
      custom: []
    headers:
      Content-Type: application/json
      Accept: application/json
    urlParameters: []
    cleanUrlParameters: []
    queryParameters: []
    cleanQueryParameters: []
    bodyParameters: []
    cleanBodyParameters: []
    fileParameters: []
    responses: []
    responseFields: []
    auth: []
    controller: null
    method: null
    route: null
    custom: []
  -
    httpMethods:
      - POST
    uri: 'api/pets/{id}'
    metadata:
      groupName: Endpoints
      groupDescription: ''
      subgroup: ''
      subgroupDescription: ''
      title: ''
      description: ''
      authenticated: false
      custom: []
    headers:
      Content-Type: application/json
      Accept: application/json
    urlParameters:
      id:
        name: id
        description: 'The ID of the pet.'
        required: true
        example: 1
        type: integer
        enumValues: []
        exampleWasSpecified: false
        nullable: false
        custom: []
    cleanUrlParameters:
      id: 1
    queryParameters: []
    cleanQueryParameters: []
    bodyParameters: []
    cleanBodyParameters: []
    fileParameters: []
    responses: []
    responseFields: []
    auth: []
    controller: null
    method: null
    route: null
    custom: []
  -
    httpMethods:
      - DELETE
    uri: 'api/pets/{id}'
    metadata:
      groupName: Endpoints
      groupDescription: ''
      subgroup: ''
      subgroupDescription: ''
      title: ''
      description: ''
      authenticated: false
      custom: []
    headers:
      Content-Type: application/json
      Accept: application/json
    urlParameters:
      id:
        name: id
        description: 'The ID of the pet.'
        required: true
        example: 1
        type: integer
        enumValues: []
        exampleWasSpecified: false
        nullable: false
        custom: []
    cleanUrlParameters:
      id: 1
    queryParameters: []
    cleanQueryParameters: []
    bodyParameters: []
    cleanBodyParameters: []
    fileParameters: []
    responses: []
    responseFields: []
    auth: []
    controller: null
    method: null
    route: null
    custom: []
  -
    httpMethods:
      - GET
    uri: 'api/getPetsByPeople/{id}'
    metadata:
      groupName: Endpoints
      groupDescription: ''
      subgroup: ''
      subgroupDescription: ''
      title: ''
      description: ''
      authenticated: false
      custom: []
    headers:
      Content-Type: application/json
      Accept: application/json
    urlParameters:
      id:
        name: id
        description: 'The ID of the getPetsByPerson.'
        required: true
        example: consequatur
        type: string
        enumValues: []
        exampleWasSpecified: false
        nullable: false
        custom: []
    cleanUrlParameters:
      id: consequatur
    queryParameters: []
    cleanQueryParameters: []
    bodyParameters: []
    cleanBodyParameters: []
    fileParameters: []
    responses:
      -
        status: 404
        content: '{"status":"error","message":"No records found"}'
        headers:
          cache-control: 'no-cache, private'
          content-type: application/json
          access-control-allow-origin: '*'
        description: null
        custom: []
    responseFields: []
    auth: []
    controller: null
    method: null
    route: null
    custom: []
